[07:03:37][ INFO  ]/system/app folder found ...  [OK]
[07:03:37][ INFO  ]/system/priv-app folder found ... [OK]
[07:03:37][ INFO  ]/system/framework folder found ... [OK]
[07:03:37][ INFO  ] Detected Sdk level :23
[07:03:37][ INFO  ] Detected ARCH :arm64
[07:03:37][ INFO  ] chosen system folder :/miuibrasil/kitchen/bin/LODTRTA/source/system
[07:03:37][ INFO  ]There is 175 apks to be deodexed
[07:03:37][ INFO  ]There is 46 jars to be deodexed
[07:03:37][ INFO  ]Plugin folder detected ,it will be deodexed if necessary ...
[07:03:37][ INFO  ]Vendor folder detected ,it will be deodexed if necessary ...
[07:03:37][ INFO  ]/data-app folder detected it will be deodexed if necessary ...
[07:03:37][INFO] About to start task :
[07:03:37][INFO] System Folder : /miuibrasil/kitchen/bin/LODTRTA/source/system
[07:03:37][INFO] Max Jobs : 4
[07:03:37][INFO] Will zipalign ? : YES
[07:03:37][INFO] Will reSign ? : NO
[07:03:37][INFO] Will create flashable zip ? : NO
[07:04:22][ INFO  ][org.apache.http.legacy.boot.jar] [SUCCESS]
[07:04:22][ INFO  ][voip-common.jar] [SUCCESS]
[07:04:22][ INFO  ][conscrypt.jar] [SUCCESS]
[07:04:22][ INFO  ][telephony-common.jar] [SUCCESS]
[07:04:23][ INFO  ][apache-xml.jar] [SUCCESS]
[07:04:23][ INFO  ][CustomPropInterface.jar][SUCCESS]
[07:04:23][ INFO  ][bouncycastle.jar] [SUCCESS]
[07:04:23][ INFO  ][mediatek-common.jar] [SUCCESS]
[07:04:24][ INFO  ][FwkPlugin.apk][SUCCESS][zipaligned]
[07:04:26][ INFO  ][activation.jar][SUCCESS]
[07:04:27][ INFO  ][AnalyticsCore.apk][SUCCESS][zipaligned]
[07:04:28][ INFO  ][framework.jar] [SUCCESS]
[07:04:28][ INFO  ][mediatek-telephony-common.jar] [SUCCESS]
[07:04:28][ INFO  ][miuisystem.jar] [SUCCESS]
[07:04:29][ INFO  ][ims-common.jar] [SUCCESS]
[07:04:29][ INFO  ][core-junit.jar] [SUCCESS]
[07:04:30][ INFO  ][am.jar][SUCCESS]
[07:04:30][ INFO  ][AntHalService.apk][SUCCESS][zipaligned]
[07:04:30][ INFO  ][core-libart.jar] [SUCCESS]
[07:04:31][ INFO  ][okhttp.jar] [SUCCESS]
[07:04:31][ INFO  ][mediatek-framework.jar] [SUCCESS]
[07:04:32][ INFO  ][ext.jar] [SUCCESS]
[07:04:32][ INFO  ][miui.jar] [SUCCESS]
[07:04:33][ INFO  ][AntiSpam.apk][SUCCESS][zipaligned]
[07:04:33][ INFO  ][facebook-services.apk][SUCCESS][zipaligned]
[07:04:36][ INFO  ][AppIndexProvider.apk][SUCCESS][zipaligned]
[07:04:37][ INFO  ][android-support-v13.jar][SUCCESS]
[07:04:37][ INFO  ][facebook-installer.apk][SUCCESS][zipaligned]
[07:04:38][ INFO  ][AtciService.apk][SUCCESS][zipaligned]
[07:04:41][ INFO  ][AutoDialer.apk][SUCCESS][zipaligned]
[07:04:41][ INFO  ][android-support-v7-recyclerview.jar][SUCCESS]
[07:04:46][ INFO  ][android.test.runner.jar][SUCCESS]
[07:04:47][ INFO  ][AutoTest.apk][SUCCESS][zipaligned]
[07:04:48][ INFO  ][appops.jar][SUCCESS]
[07:04:48][ INFO  ][YellowPage.apk][SUCCESS][zipaligned]
[07:04:49][ INFO  ][BSPTelephonyDevTool.apk][SUCCESS][zipaligned]
[07:04:49][ INFO  ][WeatherProvider.apk][SUCCESS][zipaligned]
[07:04:49][ INFO  ][appwidget.jar][SUCCESS]
[07:04:50][ INFO  ][BasicDreams.apk][SUCCESS][zipaligned]
[07:04:51][ INFO  ][bmgr.jar][SUCCESS]
[07:04:52][ INFO  ][BatteryWarning.apk][SUCCESS][zipaligned]
[07:04:52][ INFO  ][bu.jar][SUCCESS]
[07:05:04][ INFO  ][cloud-common-runtime.jar][SUCCESS]
[07:05:05][ INFO  ][Bluetooth.apk][SUCCESS][zipaligned]
[07:05:06][ INFO  ][com.android.future.usb.accessory.jar][SUCCESS]
[07:05:07][ INFO  ][BluetoothMidiService.apk][SUCCESS][zipaligned]
[07:05:08][ INFO  ][com.android.location.provider.jar][SUCCESS]
[07:05:09][ INFO  ][BookmarkProvider.apk][SUCCESS][zipaligned]
[07:05:10][ INFO  ][com.android.media.remotedisplay.jar][SUCCESS]
[07:05:12][ INFO  ][com.android.mediadrm.signer.jar][SUCCESS]
[07:05:14][ INFO  ][com.dsi.ant.antradio_library.jar][SUCCESS]
[07:05:14][ INFO  ][Weather.apk][SUCCESS][zipaligned]
[07:05:14][ INFO  ][BtTool.apk][SUCCESS][zipaligned]
[07:05:15][ INFO  ][content.jar][SUCCESS]
[07:05:17][ INFO  ][dpm.jar][SUCCESS]
[07:05:19][ INFO  ][WallpaperCropper.apk][SUCCESS][zipaligned]
[07:05:19][ INFO  ][ethernet-service.jar][SUCCESS]
[07:05:21][ INFO  ][VpnDialogs.apk][SUCCESS][zipaligned]
[07:05:22][ INFO  ][eventbus.jar][SUCCESS]
[07:05:24][ INFO  ][BugReport.apk][SUCCESS][zipaligned]
[07:05:25][ INFO  ][gson.jar][SUCCESS]
[07:05:25][ INFO  ][TelephonyProvider.apk][SUCCESS][zipaligned]
[07:05:27][ INFO  ][CMASReceiver.apk][SUCCESS][zipaligned]
[07:05:27][ INFO  ][hid.jar][SUCCESS]
[07:05:29][ INFO  ][ime.jar][SUCCESS]
[07:05:32][ INFO  ][Telecom.apk][SUCCESS][zipaligned]
[07:05:32][ INFO  ][input.jar][SUCCESS]
[07:05:34][ INFO  ][javax.obex.jar][SUCCESS]
[07:05:35][ INFO  ][Calculator.apk][SUCCESS][zipaligned]
[07:05:37][ INFO  ][media_cmd.jar][SUCCESS]
[07:05:39][ INFO  ][CalendarImporter.apk][SUCCESS][zipaligned]
[07:05:40][ INFO  ][microlog4android.jar][SUCCESS]
[07:05:41][ INFO  ][TeleService.apk][SUCCESS][zipaligned]
[07:05:43][ INFO  ][CameraAutoTest.apk][SUCCESS][zipaligned]
[07:05:45][ INFO  ][Stk1.apk][SUCCESS][zipaligned]
[07:05:45][ INFO  ][CaptivePortalLogin.apk][SUCCESS][zipaligned]
[07:05:47][ INFO  ][CertInstaller.apk][SUCCESS][zipaligned]
[07:05:47][ INFO  ][StatementService.apk][SUCCESS][zipaligned]
[07:05:47][ INFO  ][miuipushsdkshared.jar][SUCCESS]
[07:05:50][ INFO  ][miuistatssdkshared.jar][SUCCESS]
[07:05:52][ INFO  ][Shell.apk][SUCCESS][zipaligned]
[07:05:54][ INFO  ][SharedStorageBackup.apk][SUCCESS][zipaligned]
[07:05:54][ INFO  ][monkey.jar][SUCCESS]
[07:05:57][ INFO  ][SettingsProvider.apk][SUCCESS][zipaligned]
[07:05:57][ INFO  ][picasso.jar][SUCCESS]
[07:05:58][ INFO  ][CloudService.apk][SUCCESS][zipaligned]
[07:05:59][ INFO  ][pm.jar][SUCCESS]
[07:06:03][ INFO  ][CmasEM.apk][SUCCESS][zipaligned]
[07:06:06][ INFO  ][protobuf.jar][SUCCESS]
[07:06:09][ INFO  ][requestsync.jar][SUCCESS]
[07:06:09][ INFO  ][DeskClock.apk][SUCCESS][zipaligned]
[07:06:10][ INFO  ][security-device-credential-sdk.jar][SUCCESS]
[07:06:12][ INFO  ][Settings.apk][SUCCESS][zipaligned]
[07:06:15][ INFO  ][DocumentsUI.apk][SUCCESS][zipaligned]
[07:06:18][ INFO  ][DrmProvider.apk][SUCCESS][zipaligned]
[07:06:35][ INFO  ][EngineerMode.apk][SUCCESS][zipaligned]
[07:06:37][ INFO  ][EsnTrack.apk][SUCCESS][zipaligned]
[07:06:37][ INFO  ][services.jar][SUCCESS]
[07:06:37][ INFO  ][SecurityCenter.apk][SUCCESS][zipaligned]
[07:06:39][ INFO  ][settings.jar][SUCCESS]
[07:06:40][ INFO  ][RtMiCloudSDK.apk][SUCCESS][zipaligned]
[07:06:40][ INFO  ][FM.apk][SUCCESS][zipaligned]
[07:06:40][ INFO  ][sm.jar][SUCCESS]
[07:06:42][ INFO  ][ProxyHandler.apk][SUCCESS][zipaligned]
[07:06:42][ INFO  ][svc.jar][SUCCESS]
[07:06:43][ INFO  ][telecom.jar][SUCCESS]
[07:06:48][ INFO  ][uiautomator.jar][SUCCESS]
[07:06:50][ INFO  ][version-seperation.jar][SUCCESS]
[07:06:50][ INFO  ][PackageInstaller.apk][SUCCESS][zipaligned]
[07:06:52][ INFO  ][volley.jar][SUCCESS]
[07:07:05][ INFO  ][wifi-service.jar][SUCCESS]
[07:07:06][ INFO  ][wm.jar][SUCCESS]
[07:07:07][ INFO  ][FileExplorerGlobal.apk][SUCCESS][zipaligned]
[07:07:10][ INFO  ][FileExplorer_old.apk][SUCCESS][zipaligned]
[07:07:11][ INFO  ][zxing.jar][SUCCESS]
[07:07:13][ INFO  ][FingerprintEnroll.apk][SUCCESS][zipaligned]
[07:07:15][ INFO  ][GFManager.apk][SUCCESS][zipaligned]
[07:07:18][ INFO  ][GFTest.apk][SUCCESS][zipaligned]
[07:07:20][ INFO  ][Galaxy4.apk][SUCCESS][zipaligned]
[07:07:21][ INFO  ][GameCenterGlobal.apk][SUCCESS][zipaligned]
[07:07:22][ INFO  ][Gba.apk][SUCCESS][zipaligned]
[07:07:27][ INFO  ][Music.apk][SUCCESS][zipaligned]
[07:07:29][ INFO  ][MmsService.apk][SUCCESS][zipaligned]
[07:07:35][ INFO  ][GlobalPackageInstaller.apk][SUCCESS][zipaligned]
[07:07:40][ INFO  ][Mms.apk][SUCCESS][zipaligned]
[07:07:41][ INFO  ][GoogleCalendarSyncAdapter.apk][SUCCESS][zipaligned]
[07:07:45][ INFO  ][GoogleContactsSyncAdapter.apk][SUCCESS][zipaligned]
[07:07:48][ INFO  ][MiuiSystemUI.apk][SUCCESS][zipaligned]
[07:07:54][ INFO  ][MiuiKeyguard.apk][SUCCESS][zipaligned]
[07:08:04][ INFO  ][MiuiHome.apk][SUCCESS][zipaligned]
[07:08:17][ INFO  ][GoogleTTS.apk][SUCCESS][zipaligned]
[07:08:25][ INFO  ][MiuiGallery.apk][SUCCESS][zipaligned]
[07:08:26][ INFO  ][GuardProvider.apk][SUCCESS][zipaligned]
[07:08:28][ INFO  ][HTMLViewer.apk][SUCCESS][zipaligned]
[07:08:30][ INFO  ][MiuiCamera.apk][SUCCESS][zipaligned]
[07:08:30][ INFO  ][HetComm.apk][SUCCESS][zipaligned]
[07:08:31][ INFO  ][HoloSpiralWallpaper.apk][SUCCESS][zipaligned]
[07:08:32][ INFO  ][MiWebView.apk][SUCCESS][zipaligned]
[07:08:34][ INFO  ][MiVRFramework.apk][SUCCESS][zipaligned]
[07:08:34][ INFO  ][HybridAccessory.apk][SUCCESS][zipaligned]
[07:08:35][ INFO  ][InMipay.apk][SUCCESS][zipaligned]
[07:08:38][ INFO  ][KSICibaEngine.apk][SUCCESS][zipaligned]
[07:08:39][ INFO  ][KeyChain.apk][SUCCESS][zipaligned]
[07:08:49][ INFO  ][MiDrop.apk][SUCCESS][zipaligned]
[07:08:52][ INFO  ][MediaProvider.apk][SUCCESS][zipaligned]
[07:08:57][ INFO  ][ManagedProvisioning.apk][SUCCESS][zipaligned]
[07:08:58][ INFO  ][InputDevices.apk][SUCCESS][zipaligned]
[07:09:05][ INFO  ][InCallUI.apk][SUCCESS][zipaligned]
[07:09:11][ INFO  ][ImsService.apk][SUCCESS][zipaligned]
[07:09:18][ INFO  ][GoogleServicesFramework.apk][SUCCESS][zipaligned]
[07:09:21][ INFO  ][LatinImeGoogle.apk][SUCCESS][zipaligned]
[07:09:22][ INFO  ][GooglePartnerSetup.apk][SUCCESS][zipaligned]
[07:09:23][ INFO  ][LiveWallpapers.apk][SUCCESS][zipaligned]
[07:09:24][ INFO  ][GoogleOneTimeInitializer.apk][SUCCESS][zipaligned]
[07:09:24][ INFO  ][LiveWallpapersPicker.apk][SUCCESS][zipaligned]
[07:09:28][ INFO  ][LocationEM2.apk][SUCCESS][zipaligned]
[07:09:30][ INFO  ][MDMLSample.apk][SUCCESS][zipaligned]
[07:09:33][ INFO  ][GoogleLoginService.apk][SUCCESS][zipaligned]
[07:09:37][ INFO  ][GoogleFeedback.apk][SUCCESS][zipaligned]
[07:09:39][ INFO  ][GoogleBackupTransport.apk][SUCCESS][zipaligned]
[07:09:40][ INFO  ][FusedLocation.apk][SUCCESS][zipaligned]
[07:09:43][ INFO  ][MSA-Global.apk][SUCCESS][zipaligned]
[07:09:44][ INFO  ][FindDevice.apk][SUCCESS][zipaligned]
[07:09:46][ INFO  ][MTKLogger.apk][SUCCESS][zipaligned]
[07:09:46][ INFO  ][ExternalStorageProvider.apk][SUCCESS][zipaligned]
[07:09:48][ INFO  ][MTKThermalManager.apk][SUCCESS][zipaligned]
[07:09:59][ INFO  ][MiLinkService.apk][SUCCESS][zipaligned]
[07:10:01][ INFO  ][DownloadProviderUi.apk][SUCCESS][zipaligned]
[07:10:13][ INFO  ][MiPicks.apk][SUCCESS][zipaligned]
[07:10:16][ INFO  ][MiWallpaper.apk][SUCCESS][zipaligned]
[07:10:16][ INFO  ][DownloadProvider.apk][SUCCESS][zipaligned]
[07:10:18][ INFO  ][DefaultContainerService.apk][SUCCESS][zipaligned]
[07:10:18][ INFO  ][MiuiBluetooth.apk][SUCCESS][zipaligned]
[07:10:20][ INFO  ][MiuiCompass.apk][SUCCESS][zipaligned]
[07:10:23][ INFO  ][ContactsProvider.apk][SUCCESS][zipaligned]
[07:10:27][ INFO  ][MiuiDaemon.apk][SUCCESS][zipaligned]
[07:10:35][ INFO  ][ConfigUpdater.apk][SUCCESS][zipaligned]
[07:10:39][ INFO  ][CloudServiceSysbase.apk][SUCCESS][zipaligned]
[07:10:41][ INFO  ][MiuiScanner.apk][SUCCESS][zipaligned]
[07:10:42][ INFO  ][CloudBackup.apk][SUCCESS][zipaligned]
[07:10:49][ INFO  ][MiuiScreenRecorder.apk][SUCCESS][zipaligned]
[07:11:01][ INFO  ][CleanMaster.apk][SUCCESS][zipaligned]
[07:11:03][ INFO  ][CellBroadcastReceiver.apk][SUCCESS][zipaligned]
[07:11:04][ INFO  ][CarrierConfig.apk][SUCCESS][zipaligned]
[07:11:06][ INFO  ][CallLogBackup.apk][SUCCESS][zipaligned]
[07:11:11][ INFO  ][CalendarProvider.apk][SUCCESS][zipaligned]
[07:11:20][ INFO  ][MiuiVideoPlayer.apk][SUCCESS][zipaligned]
[07:11:21][ INFO  ][MtkFloatMenu.apk][SUCCESS][zipaligned]
[07:11:23][ INFO  ][MusicFX.apk][SUCCESS][zipaligned]
[07:11:25][ INFO  ][NoiseField.apk][SUCCESS][zipaligned]
[07:11:29][ INFO  ][Calendar.apk][SUCCESS][zipaligned]
[07:11:32][ INFO  ][Notes.apk][SUCCESS][zipaligned]
[07:11:35][ INFO  ][Omacp.apk][SUCCESS][zipaligned]
[07:11:44][ INFO  ][OverseaEcom.apk][SUCCESS][zipaligned]
[07:11:45][ INFO  ][PacProcessor.apk][SUCCESS][zipaligned]
[07:11:47][ INFO  ][PartnerBookmarksProvider.apk][SUCCESS][zipaligned]
[07:11:59][ INFO  ][Browser.apk][SUCCESS][zipaligned]
[07:12:00][ INFO  ][BackupRestoreConfirmation.apk][SUCCESS][zipaligned]
[07:12:02][ INFO  ][PaymentService.apk][SUCCESS][zipaligned]
[07:12:04][ INFO  ][PhaseBeam.apk][SUCCESS][zipaligned]
[07:12:07][ INFO  ][PhotoTable.apk][SUCCESS][zipaligned]
[07:12:10][ INFO  ][PowerChecker.apk][SUCCESS][zipaligned]
[07:12:15][ INFO  ][Backup.apk][SUCCESS][zipaligned]
[07:12:15][ INFO  ][PowerKeeper.apk][SUCCESS][zipaligned]
[07:12:20][ INFO  ][AuthManager.apk][SUCCESS][zipaligned]
[07:12:20][ INFO  ][PrintSpooler.apk][SUCCESS][zipaligned]
[07:12:23][ INFO  ][Provision.apk][SUCCESS][zipaligned]
[07:12:24][ INFO  ][miuisystem.apk][SUCCESS][zipaligned]
[07:12:26][ INFO  ][RawDataTest.apk][SUCCESS][zipaligned]
[07:12:28][ INFO  ][SYSOPT.apk][SUCCESS][zipaligned]
[07:12:30][ INFO  ][miui.apk][SUCCESS][zipaligned]
[07:12:32][ INFO  ][limitedbatterycharge.apk][SUCCESS][zipaligned]
[07:12:35][ INFO  ][SecurityAdd.apk][SUCCESS][zipaligned]
[07:12:42][ INFO  ][facebook-appmanager.apk][SUCCESS][zipaligned]
[07:12:43][ INFO  ][SecurityCoreAdd.apk][SUCCESS][zipaligned]
[07:12:45][ INFO  ][SensorHub.apk][SUCCESS][zipaligned]
[07:12:46][ INFO  ][cit_nikel.apk][SUCCESS][zipaligned]
[07:12:49][ INFO  ][YouDaoEngine.apk][SUCCESS][zipaligned]
[07:12:50][ INFO  ][SmsExtra.apk][SUCCESS][zipaligned]
[07:12:52][ INFO  ][YGPS.apk][SUCCESS][zipaligned]
[07:12:54][ INFO  ][XiaomiSimActivateService.apk][SUCCESS][zipaligned]
[07:12:58][ INFO  ][XiaomiServiceFramework.apk][SUCCESS][zipaligned]
[07:13:03][ INFO  ][XiaomiAccount.apk][SUCCESS][zipaligned]
[07:13:11][ INFO  ][Whetstone.apk][SUCCESS][zipaligned]
[07:13:27][ INFO  ][WebViewGoogle.apk][SUCCESS][zipaligned]
[07:13:28][ INFO  ][WMService.apk][SUCCESS][zipaligned]
[07:13:37][ INFO  ][VirtualSim.apk][SUCCESS][zipaligned]
[07:13:38][ INFO  ][UserDictionaryProvider.apk][SUCCESS][zipaligned]
[07:13:47][ INFO  ][UpnpService.apk][SUCCESS][zipaligned]
[07:13:51][ INFO  ][Updater.apk][SUCCESS][zipaligned]
[07:13:52][ INFO  ][TranslationService.apk][SUCCESS][zipaligned]
[07:13:54][ INFO  ][TouchAssistant.apk][SUCCESS][zipaligned]
[07:13:55][ INFO  ][ThemeModule.apk][SUCCESS][zipaligned]
[07:14:10][ INFO  ][ThemeManager.apk][SUCCESS][zipaligned]
[07:14:13][ INFO  ][SystemAppUpdater.apk][SUCCESS][zipaligned]
[07:14:19][ INFO  ][SpacesPolicyApp.apk][SUCCESS][zipaligned]
[07:14:23][ INFO  ][SpacesCore.apk][SUCCESS][zipaligned]
[07:14:26][ INFO  ][SoundRecorder.apk][SUCCESS][zipaligned]
[07:14:28]Log file saved to /miuibrasil/kitchen/bin/LODTRTA/logs/2018-04-21_07.03.36/Deodexing_log.txt
