[15:58:15][ INFO  ]/system/app folder found ...  [OK]
[15:58:15][ INFO  ]/system/priv-app folder found ... [OK]
[15:58:15][ INFO  ]/system/framework folder found ... [OK]
[15:58:15][ INFO  ] Detected Sdk level :23
[15:58:15][ INFO  ] Detected ARCH :arm64
[15:58:15][ INFO  ] chosen system folder :/miuibrasil/kitchen/bin/LODTRTA/source/system
[15:58:16][ INFO  ]There is 39 apks to be deodexed
[15:58:16][ INFO  ]There is 59 jars to be deodexed
[15:58:16][ INFO  ]Vendor folder detected ,it will be deodexed if necessary ...
[15:58:16][ INFO  ]/data-app folder detected it will be deodexed if necessary ...
[15:58:16][INFO] About to start task :
[15:58:16][INFO] System Folder : /miuibrasil/kitchen/bin/LODTRTA/source/system
[15:58:16][INFO] Max Jobs : 4
[15:58:16][INFO] Will zipalign ? : YES
[15:58:16][INFO] Will reSign ? : NO
[15:58:16][INFO] Will create flashable zip ? : NO
[15:59:03][ INFO  ][org.apache.http.legacy.boot.jar] [SUCCESS]
[15:59:03][ INFO  ][com.qti.dpmframework.jar] [SUCCESS]
[15:59:03][ INFO  ][voip-common.jar] [SUCCESS]
[15:59:03][ INFO  ][tcmiface.jar] [SUCCESS]
[15:59:03][ INFO  ][conscrypt.jar] [SUCCESS]
[15:59:04][ INFO  ][telephony-common.jar] [SUCCESS]
[15:59:04][ INFO  ][QPerformance.jar][SUCCESS]
[15:59:04][ INFO  ][apache-xml.jar] [SUCCESS]
[15:59:04][ INFO  ][WfdCommon.jar] [SUCCESS]
[15:59:04][ INFO  ][com.qti.location.sdk.jar] [SUCCESS]
[15:59:04][ INFO  ][bouncycastle.jar] [SUCCESS]
[15:59:08][ INFO  ][QtiTelephonyServicelibrary.jar][SUCCESS]
[15:59:11][ INFO  ][com.qualcomm.location.apk][SUCCESS][zipaligned]
[15:59:11][ INFO  ][activation.jar][SUCCESS]
[15:59:12][ INFO  ][framework.jar] [SUCCESS]
[15:59:12][ INFO  ][miuisystem.jar] [SUCCESS]
[15:59:12][ INFO  ][ims-common.jar] [SUCCESS]
[15:59:12][ INFO  ][dpmapi.jar] [SUCCESS]
[15:59:12][ INFO  ][core-junit.jar] [SUCCESS]
[15:59:14][ INFO  ][core-libart.jar] [SUCCESS]
[15:59:15][ INFO  ][okhttp.jar] [SUCCESS]
[15:59:15][ INFO  ][am.jar][SUCCESS]
[15:59:15][ INFO  ][qcom.fmradio.jar] [SUCCESS]
[15:59:15][ INFO  ][ext.jar] [SUCCESS]
[15:59:15][ INFO  ][qcmediaplayer.jar] [SUCCESS]
[15:59:16][ INFO  ][miui.jar] [SUCCESS]
[15:59:25][ INFO  ][android-support-v13.jar][SUCCESS]
[15:59:29][ INFO  ][Bluetooth.apk][SUCCESS][zipaligned]
[15:59:30][ INFO  ][android-support-v7-recyclerview.jar][SUCCESS]
[15:59:31][ INFO  ][Weather.apk][SUCCESS][zipaligned]
[15:59:35][ INFO  ][android.test.runner.jar][SUCCESS]
[15:59:37][ INFO  ][Telecom.apk][SUCCESS][zipaligned]
[15:59:38][ INFO  ][appops.jar][SUCCESS]
[15:59:39][ INFO  ][BugReport.apk][SUCCESS][zipaligned]
[15:59:40][ INFO  ][appwidget.jar][SUCCESS]
[15:59:43][ INFO  ][bmgr.jar][SUCCESS]
[15:59:46][ INFO  ][DeskClock.apk][SUCCESS][zipaligned]
[15:59:46][ INFO  ][btmultisimlibrary.jar][SUCCESS]
[15:59:47][ INFO  ][TeleService.apk][SUCCESS][zipaligned]
[15:59:47][ INFO  ][bu.jar][SUCCESS]
[15:59:50][ INFO  ][SettingsProvider.apk][SUCCESS][zipaligned]
[15:59:55][ INFO  ][PowerKeeper.apk][SUCCESS][zipaligned]
[15:59:58][ INFO  ][cloud-common-runtime.jar][SUCCESS]
[16:00:00][ INFO  ][com.android.future.usb.accessory.jar][SUCCESS]
[16:00:02][ INFO  ][SoundRecorder.apk][SUCCESS][zipaligned]
[16:00:03][ INFO  ][com.android.location.provider.jar][SUCCESS]
[16:00:06][ INFO  ][com.android.media.remotedisplay.jar][SUCCESS]
[16:00:08][ INFO  ][com.android.mediadrm.signer.jar][SUCCESS]
[16:00:09][ INFO  ][Settings.apk][SUCCESS][zipaligned]
[16:00:09][ INFO  ][Updater.apk][SUCCESS][zipaligned]
[16:00:10][ INFO  ][com.qrd.wappush.jar][SUCCESS]
[16:00:13][ INFO  ][com.qualcomm.location.vzw_library.jar][SUCCESS]
[16:00:15][ INFO  ][com.quicinc.wbc.jar][SUCCESS]
[16:00:17][ INFO  ][com.quicinc.wbcservice.jar][SUCCESS]
[16:00:20][ INFO  ][content.jar][SUCCESS]
[16:00:22][ INFO  ][dpm.jar][SUCCESS]
[16:00:24][ INFO  ][ethernet-service.jar][SUCCESS]
[16:00:27][ INFO  ][eventbus.jar][SUCCESS]
[16:00:28][ INFO  ][SecurityCenter.apk][SUCCESS][zipaligned]
[16:00:30][ INFO  ][ProxyHandler.apk][SUCCESS][zipaligned]
[16:00:31][ INFO  ][gson.jar][SUCCESS]
[16:00:33][ INFO  ][hid.jar][SUCCESS]
[16:00:35][ INFO  ][ime.jar][SUCCESS]
[16:00:38][ INFO  ][input.jar][SUCCESS]
[16:00:39][ INFO  ][PackageInstaller.apk][SUCCESS][zipaligned]
[16:00:42][ INFO  ][MmsService.apk][SUCCESS][zipaligned]
[16:00:42][ INFO  ][javax.obex.jar][SUCCESS]
[16:00:44][ INFO  ][media_cmd.jar][SUCCESS]
[16:00:44][ INFO  ][WebViewGoogle.apk][SUCCESS][zipaligned]
[16:00:47][ INFO  ][microlog4android.jar][SUCCESS]
[16:00:56][ INFO  ][miuipushsdkshared.jar][SUCCESS]
[16:00:57][ INFO  ][Mms.apk][SUCCESS][zipaligned]
[16:01:00][ INFO  ][Whetstone.apk][SUCCESS][zipaligned]
[16:01:01][ INFO  ][miuistatssdkshared.jar][SUCCESS]
[16:01:06][ INFO  ][monkey.jar][SUCCESS]
[16:01:06][ INFO  ][MiuiSystemUI.apk][SUCCESS][zipaligned]
[16:01:08][ INFO  ][org.codeaurora.camera.jar][SUCCESS]
[16:01:12][ INFO  ][org.simalliance.openmobileapi.jar][SUCCESS]
[16:01:12][ INFO  ][XiaomiAccount.apk][SUCCESS][zipaligned]
[16:01:16][ INFO  ][picasso.jar][SUCCESS]
[16:01:17][ INFO  ][MiuiKeyguard.apk][SUCCESS][zipaligned]
[16:01:19][ INFO  ][pm.jar][SUCCESS]
[16:01:19][ INFO  ][XiaomiServiceFramework.apk][SUCCESS][zipaligned]
[16:01:22][ INFO  ][btmultisim.apk][SUCCESS][zipaligned]
[16:01:26][ INFO  ][protobuf.jar][SUCCESS]
[16:01:27][ INFO  ][MiuiHome.apk][SUCCESS][zipaligned]
[16:01:30][ INFO  ][qcrilhook.jar][SUCCESS]
[16:01:31][ INFO  ][miui.apk][SUCCESS][zipaligned]
[16:01:35][ INFO  ][qti-telephony-common.jar][SUCCESS]
[16:01:40][ INFO  ][miuisystem.apk][SUCCESS][zipaligned]
[16:01:40][ INFO  ][rcs_service_aidl.jar][SUCCESS]
[16:01:46][ INFO  ][rcs_service_api.jar][SUCCESS]
[16:01:49][ INFO  ][requestsync.jar][SUCCESS]
[16:01:51][ INFO  ][security-device-credential-sdk.jar][SUCCESS]
[16:01:56][ INFO  ][MiuiGallery.apk][SUCCESS][zipaligned]
[16:02:05][ INFO  ][Contacts.apk][SUCCESS][zipaligned]
[16:02:06][ INFO  ][MiuiCamera.apk][SUCCESS][zipaligned]
[16:02:08][ INFO  ][InputDevices.apk][SUCCESS][zipaligned]
[16:02:13][ INFO  ][ContactsProvider.apk][SUCCESS][zipaligned]
[16:02:15][ INFO  ][InCallUI.apk][SUCCESS][zipaligned]
[16:02:16][ INFO  ][DefaultContainerService.apk][SUCCESS][zipaligned]
[16:02:17][ INFO  ][services.jar][SUCCESS]
[16:02:17][ INFO  ][FusedLocation.apk][SUCCESS][zipaligned]
[16:02:18][ INFO  ][settings.jar][SUCCESS]
[16:02:19][ INFO  ][sm.jar][SUCCESS]
[16:02:20][ INFO  ][svc.jar][SUCCESS]
[16:02:21][ INFO  ][telecom.jar][SUCCESS]
[16:02:23][ INFO  ][uiautomator.jar][SUCCESS]
[16:02:24][ INFO  ][uimremoteclientlibrary.jar][SUCCESS]
[16:02:25][ INFO  ][vcard.jar][SUCCESS]
[16:02:26][ INFO  ][version-seperation.jar][SUCCESS]
[16:02:28][ INFO  ][volley.jar][SUCCESS]
[16:02:34][ INFO  ][wifi-service.jar][SUCCESS]
[16:02:35][ INFO  ][wm.jar][SUCCESS]
[16:02:38][ INFO  ][zxing.jar][SUCCESS]
[16:02:39][ INFO  ][qti-vzw-ims-internal.jar][SUCCESS]
[16:02:40][ INFO  ][com.qrd.ctuseragent.jar][SUCCESS]
[16:02:40][ INFO  ][com.qrd.cmccuseragent.jar][SUCCESS]
[16:02:41][ INFO  ][com.qrd.cuuseragent.jar][SUCCESS]
[16:02:43]Log file saved to /miuibrasil/kitchen/bin/LODTRTA/logs/2018-06-06_15.57.58/Deodexing_log.txt
